digraph Tree {
node [shape=box] ;
0 [label="PetalWidth <= 0.8\ngini = 0.6667\nsamples = 150\nvalue = [50, 50, 50]"] ;
1 [label="gini = 0.0\nsamples = 50\nvalue = [50, 0, 0]"] ;
0 -> 1 [labeldistance=2.5, labelangle=45, headlabel="True"] ;
2 [label="PetalWidth <= 1.75\ngini = 0.5\nsamples = 100\nvalue = [0, 50, 50]"] ;
0 -> 2 [labeldistance=2.5, labelangle=-45, headlabel="False"] ;
3 [label="PetalLength <= 4.95\ngini = 0.168\nsamples = 54\nvalue = [0, 49, 5]"] ;
2 -> 3 ;
4 [label="gini = 0.0408\nsamples = 48\nvalue = [0, 47, 1]"] ;
3 -> 4 ;
5 [label="gini = 0.4444\nsamples = 6\nvalue = [0, 2, 4]"] ;
3 -> 5 ;
6 [label="PetalLength <= 4.85\ngini = 0.0425\nsamples = 46\nvalue = [0, 1, 45]"] ;
2 -> 6 ;
7 [label="gini = 0.4444\nsamples = 3\nvalue = [0, 1, 2]"] ;
6 -> 7 ;
8 [label="gini = 0.0\nsamples = 43\nvalue = [0, 0, 43]"] ;
6 -> 8 ;
}